Introduction to Conjugator • conjugator
…
A note on growth rates

The package currently also contains a function to estimate growth rates from OD data. This is included only for convenience and no guarantees can be made for correctness! Generally we recommend using a dedicated package such as growthcurver to estimate growth rates.

growth_example
#> # A tibble: 38 × 3
#>    Time_h Donor_OD Recipient_OD
#>     <dbl>    <dbl>        <dbl>
#>  1  0      0.00745       0.0140
#>  2  0.324  0.0176        0.0170
#>  3  0.649  0.0281        0.0187
#>  4  0.973  0.0408        0.0279
#>  5  1.30   0.0622        0.0406
#>  6  1.62   0.0928        0.0694
#>  7  1.95   0.120         0.0922
#>  8  2.27   0.148         0.110 
#>  9  2.59   0.163         0.128 
#> 10  2.92   0.167         0.133 
#> # … with 28 more rows
…
